…
    ##  [1] 57 53 48  4 87 72 34 98 28 46

``` r
# OJO: PRIMERO ELIMINAR LOS OUTLIERS LUEGO LOS NAS #
# Filtrado de datos: NAs

library(readxl)
# La base de datos importada tiene 9 NAs # 
data <- read_excel("Bases de datos (Compilación).xls",  sheet = "NA&outlier")
data
```

    ## # A tibble: 39 x 5
    ##       id chereal temperatura densidad humedad
    ##    <dbl>   <dbl>       <dbl>    <dbl>   <dbl>
    ##  1     1       1          NA       12       4
    ##  2     2       1          14       24     100
    ##  3     3       5          15       17      49
    ##  4     4       4          15       24      35
    ##  5     5      NA          27       23      38
    ##  6     6      NA          24       25      40
    ##  7     7      NA          22       23      45
    ##  8     8      NA          18       24      51
    ##  9     9      NA          25       14      17
    ## 10    10       3          21       30      64
    ## # … with 29 more rows

``` r
# Elimina las filas que contengan NAs #
datos_sin_na <- data[complete.cases(data), ]
datos_sin_na
```

    ## # A tibble: 30 x 5
    ##       id chereal temperatura densidad humedad
    ##    <dbl>   <dbl>       <dbl>    <dbl>   <dbl>
    ##  1     2       1          14       24     100
    ##  2     3       5          15       17      49
    ##  3     4       4          15       24      35
    ##  4    10       3          21       30      64
    ##  5    11       1          19       23      90
    ##  6    15       5          22       21      41
    ##  7    16       4          27       10      51
    ##  8    17       2          20       30      32
    ##  9    18       3          14       30      85
    ## 10    19       4          18       27      56
    ## # … with 20 more rows
…
``` r
datos_sin_na1
```

    ## # A tibble: 0 x 5
    ## # … with 5 variables: id <dbl>, chereal <dbl>, temperatura <dbl>,
    ## #   densidad <dbl>, humedad <dbl>

``` r
# Elimina todos los NAs, indiferentemente de filas o columnas #
datos_sin_na2 <- na.omit(data) 
datos_sin_na2
```

    ## # A tibble: 30 x 5
    ##       id chereal temperatura densidad humedad
    ##    <dbl>   <dbl>       <dbl>    <dbl>   <dbl>
    ##  1     2       1          14       24     100
    ##  2     3       5          15       17      49
    ##  3     4       4          15       24      35
    ##  4    10       3          21       30      64
    ##  5    11       1          19       23      90
    ##  6    15       5          22       21      41
    ##  7    16       4          27       10      51
    ##  8    17       2          20       30      32
    ##  9    18       3          14       30      85
    ## 10    19       4          18       27      56
    ## # … with 20 more rows
…
``` r
# Cuantifica cuantos NAs hay por filas #
sum(fila_na)
```

    ## [1] 9

``` r
# Elimina los NAs #
datos_sin_na3 <- data[!fila_na,] 
datos_sin_na3
```

    ## # A tibble: 30 x 5
    ##       id chereal temperatura densidad humedad
    ##    <dbl>   <dbl>       <dbl>    <dbl>   <dbl>
    ##  1     2       1          14       24     100
    ##  2     3       5          15       17      49
    ##  3     4       4          15       24      35
    ##  4    10       3          21       30      64
    ##  5    11       1          19       23      90
    ##  6    15       5          22       21      41
    ##  7    16       4          27       10      51
    ##  8    17       2          20       30      32
    ##  9    18       3          14       30      85
    ## 10    19       4          18       27      56
    ## # … with 20 more rows
…
    ## The following objects are masked from 'package:stats':
    ## 
    ##     filter, lag

    ## The following objects are masked from 'package:base':
    ## 
    ##     intersect, setdiff, setequal, union

``` r
# Elimina los NAs usando el paquete tidyr# 
data %>% drop_na() 
```

    ## # A tibble: 30 x 5
    ##       id chereal temperatura densidad humedad
    ##    <dbl>   <dbl>       <dbl>    <dbl>   <dbl>
    ##  1     2       1          14       24     100
    ##  2     3       5          15       17      49
    ##  3     4       4          15       24      35
    ##  4    10       3          21       30      64
    ##  5    11       1          19       23      90
    ##  6    15       5          22       21      41
    ##  7    16       4          27       10      51
    ##  8    17       2          20       30      32
    ##  9    18       3          14       30      85
    ## 10    19       4          18       27      56
    ## # … with 20 more rows

``` r
# Elimina los NAs para las columnas: temperatura y densidad #
# Tener en cuenta que solo debe ir el nombre de la variable, no se debe usar $ # 
datosfiltrados <- data %>% drop_na(temperatura, densidad)
datosfiltrados
```

    ## # A tibble: 35 x 5
    ##       id chereal temperatura densidad humedad
    ##    <dbl>   <dbl>       <dbl>    <dbl>   <dbl>
    ##  1     2       1          14       24     100
    ##  2     3       5          15       17      49
    ##  3     4       4          15       24      35
    ##  4     5      NA          27       23      38
    ##  5     6      NA          24       25      40
    ##  6     7      NA          22       23      45
    ##  7     8      NA          18       24      51
    ##  8     9      NA          25       14      17
    ##  9    10       3          21       30      64
    ## 10    11       1          19       23      90
    ## # … with 25 more rows
…
